bit	prediction accuracy	evaluation score	error count
0	0.98300169983001695	-2.8574773266519608e-15	170
1	0.9826017398260174	-1.9941344233613849e-16	174
3	0.98650134986501348	-1.5421306207328042e-15	135
4	0.99450054994500547	-4.5738192274007033e-15	55
5	0.99940005999400061	1.8975435372298177e-14	6
6	0.99890010998900114	3.5880823249436548e-14	11
7	0.99760023997600245	1.8975435372298177e-14	24
8	0.99520047995200478	-4.1565239386938862e-15	48
9	0.99080091990800923	2.8286363287897904e-15	92
10	0.97640235976402356	-1.470251651122377e-15	236
11	0.94030596940305966	-5.8120500781387093e-16	597
12	0.91860813918608142	3.4101168517433016e-16	814
13	0.91060893910608942	3.1049609813412168e-16	894
14	0.90610938906109384	-5.9123218686241702e-16	939
15	0.89371062893710629	0.0	1063
16	0.89971002899710029	0.0	1003
17	0.89851014898510151	1.3674064617335212e-16	1015
18	0.89721027897210281	2.7002287133453771e-16	1028
19	0.88691130886911307	-1.2271596451454675e-16	1131
20	0.88751124887511246	-2.4674089931724865e-16	1125
21	0.87721227877212282	2.2604520499340781e-16	1228
22	0.86181381861813822	2.0085637607228999e-16	1382
23	0.83441655834416562	1.676228935579135e-16	1656
24	0.79062093790620935	-1.3256137140969663e-16	2094
25	0.74462553744625537	0.0	2554
26	0.69683031696830322	1.8310258029809021e-16	3032
27	0.62573742625737427	-0.0018736616702355602	3736
28	0.58134186581341862	-0.012820512820512936	4134
29	0.55444455554444561	-0.021783994496675001	4361
30	0.53134686531346864	-0.029431144300461246	4553
31	0.51274872512748726	-0.017752715121136107	4788
32	0.50354964503549648	-0.017209588199139422	4881
33	0.50774922507749221	-0.023067331670823085	4812
