bit	prediction accuracy	evaluation score	error count
ST2
61	0.99650034996500347	0.75694444444444264	144
60	0.99940005999400061	0.96319018404908041	163
59	0.99780021997800217	0.84172661870503362	139
58	0.99440055994400556	0.017543859649115524	57
50	1.0	1.0	95
49	0.99490050994900514	0.71666666666666889	180
48	0.99210078992100792	0.72852233676976019	291
47	0.9953004699530047	0.70253164556962011	158
46	0.98960103989601045	0.39181286549707883	171
45	0.98910108989101087	0.31446540880502932	159
44	0.98910108989101087	0.43523316062175987	193
43	0.98250174982501748	0.4615384615384609	325
42	0.97430256974302565	0.42888888888888782	450
41	0.96970302969703026	0.34698275862068884	464
40	0.97000299970003001	0.26470588235294157	408
39	0.97190280971902809	0.37831858407079638	452
38	0.96900309969003096	0.32314410480349259	458
37	0.94910508949105088	0.35159235668789796	785
36	0.9198080191980802	0.25325884543761645	1074
35	0.92030796920307967	0.2909252669039144	1124
34	0.91660833916608342	0.38130563798219597	1348
33	0.89221077892210776	0.35871505056513964	1681
32	0.90290970902909706	0.52378616969102487	2039
31	0.88791120887911212	0.44339622641509452	2014
30	0.91080891910808914	0.3805555555555552	1440
29	0.91470852914708534	0.40056219255094905	1423
28	0.92060793920607942	0.45241379310344843	1450
27	0.91400859914008603	0.33947772657450109	1302
26	0.92140785921407864	0.43493889288281851	1391
25	0.91800819918008203	0.45478723404255345	1504
24	0.90930906909309073	0.31026615969581772	1315
23	0.92760723927607236	0.46528803545051678	1354
22	0.91690830916908306	0.40215827338129467	1390
21	0.93490650934906505	0.37583892617449627	1043
20	0.92240775922407758	0.37620578778135039	1244
19	0.92730726927307272	0.41559485530546642	1244
18	0.93080691930806925	0.49562682215743481	1372
17	0.9479052094790521	0.35916359163591643	813
16	0.9606039396060394	0.18930041152263391	486
15	0.96380361963803618	0.30783938814531514	523
14	0.96510348965103487	0.50496453900709182	705
13	0.9599040095990401	0.44917582417582425	728
12	0.95840415958404157	0.33757961783439444	628
11	0.96290370962903704	0.43957703927492364	662
10	0.97650234976502348	0.44575471698113167	424
9	0.99620037996200383	0.46478873239437118	71
8	0.99670032996700331	0.52173913043478359	69
7	0.99660033996600339	0.49253731343283441	67
6	0.99640035996400356	0.47058823529411137	68
5	0.99510048995100486	0.039215686274502705	51
4	0.99560043995600445	-0.18918918918917665	37
3	0.99760023997600245	1.8975435372298177e-14	24
ST3
84	0.99640035996400356	0.75510204081632359	147
83	0.99940005999400061	0.96363636363636429	165
82	0.99780021997800217	0.84172661870503362	139
81	0.99440055994400556	0.017543859649115524	57
80	0.99970002999700025	-1.6608023911563832e-13	3
79	0.99960003999600044	1.1154845222429571e-13	4
78	0.99930006999300069	-7.43527263567602e-15	7
77	0.998000199980002	4.337242370811012e-16	20
76	0.9953004699530047	-0.17500000000000088	40
75	1.0	1.0	95
74	0.99490050994900514	0.71666666666666889	180
73	0.99210078992100792	0.72852233676976019	291
72	0.9953004699530047	0.70253164556962011	158
71	0.98960103989601045	0.39181286549707883	171
70	0.98910108989101087	0.31446540880502932	159
69	0.98910108989101087	0.43523316062175987	193
68	0.98250174982501748	0.4615384615384609	325
67	0.97430256974302565	0.42888888888888782	450
66	0.96970302969703026	0.34698275862068884	464
65	0.97000299970003001	0.26470588235294157	408
64	0.97190280971902809	0.37831858407079638	452
63	0.96900309969003096	0.32314410480349259	458
62	0.94910508949105088	0.35159235668789796	785
61	0.9198080191980802	0.25325884543761645	1074
60	0.92030796920307967	0.2909252669039144	1124
59	0.91660833916608342	0.38130563798219597	1348
58	0.89221077892210776	0.35871505056513964	1681
57	0.90290970902909706	0.52378616969102487	2039
56	0.88791120887911212	0.44339622641509452	2014
55	0.91080891910808914	0.3805555555555552	1440
54	0.91470852914708534	0.40056219255094905	1423
53	0.92060793920607942	0.45241379310344843	1450
52	0.91400859914008603	0.33947772657450109	1302
51	0.92140785921407864	0.43493889288281851	1391
50	0.99490050994900514	0.71666666666666889	180
49	0.99210078992100792	0.72852233676976019	291
48	0.9953004699530047	0.70253164556962011	158
47	0.98960103989601045	0.39181286549707883	171
46	0.98910108989101087	0.31446540880502932	159
45	0.98910108989101087	0.43523316062175987	193
44	0.98250174982501748	0.4615384615384609	325
43	0.97430256974302565	0.42888888888888782	450
42	0.96970302969703026	0.34698275862068884	464
41	0.97000299970003001	0.26470588235294157	408
40	0.97190280971902809	0.37831858407079638	452
39	0.96900309969003096	0.32314410480349259	458
38	0.94910508949105088	0.35159235668789796	785
37	0.9198080191980802	0.25325884543761645	1074
36	0.92030796920307967	0.2909252669039144	1124
35	0.91660833916608342	0.38130563798219597	1348
34	0.89221077892210776	0.35871505056513964	1681
33	0.90290970902909706	0.52378616969102487	2039
32	0.88791120887911212	0.44339622641509452	2014
31	0.91080891910808914	0.3805555555555552	1440
30	0.91470852914708534	0.40056219255094905	1423
29	0.92060793920607942	0.45241379310344843	1450
28	0.91400859914008603	0.33947772657450109	1302
27	0.92140785921407864	0.43493889288281851	1391
26	0.91800819918008203	0.45478723404255345	1504
25	0.90930906909309073	0.31026615969581772	1315
24	0.92760723927607236	0.46528803545051678	1354
23	0.91690830916908306	0.40215827338129467	1390
22	0.93490650934906505	0.37583892617449627	1043
21	0.92240775922407758	0.37620578778135039	1244
20	0.92730726927307272	0.41559485530546642	1244
19	0.93080691930806925	0.49562682215743481	1372
18	0.9479052094790521	0.35916359163591643	813
17	0.9606039396060394	0.18930041152263391	486
16	0.96380361963803618	0.30783938814531514	523
15	0.96510348965103487	0.50496453900709182	705
14	0.9599040095990401	0.44917582417582425	728
13	0.95840415958404157	0.33757961783439444	628
12	0.96290370962903704	0.43957703927492364	662
11	0.97650234976502348	0.44575471698113167	424
10	0.99620037996200383	0.46478873239437118	71
9	0.99670032996700331	0.52173913043478359	69
8	0.99660033996600339	0.49253731343283441	67
7	0.99640035996400356	0.47058823529411137	68
6	0.99510048995100486	0.039215686274502705	51
5	0.99560043995600445	-0.18918918918917665	37
4	0.99760023997600245	1.8975435372298177e-14	24
ST4
35	0.99640035996400356	0.75510204081632359	147
34	0.99940005999400061	0.96363636363636429	165
33	0.99780021997800217	0.84172661870503362	139
32	0.99440055994400556	0.017543859649115524	57
31	0.99970002999700025	-1.6608023911563832e-13	3
30	0.99960003999600044	1.1154845222429571e-13	4
29	0.99930006999300069	-7.43527263567602e-15	7
28	0.998000199980002	4.337242370811012e-16	20
27	0.9953004699530047	-0.17500000000000088	40
26	1.0	1.0	95
25	0.99490050994900514	0.71666666666666889	180
24	0.9953004699530047	0.70253164556962011	158
23	0.98960103989601045	0.39181286549707883	171
22	0.98910108989101087	0.31446540880502932	159
21	0.98910108989101087	0.43523316062175987	193
20	0.98250174982501748	0.4615384615384609	325
19	0.97430256974302565	0.42888888888888782	450
18	0.96970302969703026	0.34698275862068884	464
17	0.97000299970003001	0.26470588235294157	408
16	0.97190280971902809	0.37831858407079638	452
15	0.96900309969003096	0.32314410480349259	458
14	0.94910508949105088	0.35159235668789796	785
13	0.9198080191980802	0.25325884543761645	1074
12	0.92030796920307967	0.2909252669039144	1124
11	0.91660833916608342	0.38130563798219597	1348
10	0.89221077892210776	0.35871505056513964	1681
9	0.90290970902909706	0.52378616969102487	2039
8	0.88791120887911212	0.44339622641509452	2014
7	0.91080891910808914	0.3805555555555552	1440
6	0.91470852914708534	0.40056219255094905	1423
5	0.92060793920607942	0.45241379310344843	1450
4	0.91400859914008603	0.33947772657450109	1302
3	0.92140785921407864	0.43493889288281851	1391
ST5
33	0.99510048995100486	0.61417322834645383	127
32	0.9953004699530047	0.61475409836065542	122
30	0.99770022997700225	0.83571428571428219	140
29	0.99430056994300575	0.017241379310353824	58
28	0.99970002999700025	-1.6608023911563832e-13	3
27	0.99960003999600044	1.1154845222429571e-13	4
26	0.99930006999300069	-7.43527263567602e-15	7
25	0.998000199980002	4.337242370811012e-16	20
24	0.99520047995200478	-0.17073170731707804	41
23	1.0	1.0	95
22	0.99490050994900514	0.71666666666666889	180
21	0.97550244975502454	0.15807560137457177	291
20	0.9953004699530047	0.70253164556962011	158
19	0.98970102989701025	0.4011627906976718	172
18	0.98910108989101087	0.31446540880502932	159
17	0.98900109989001095	0.43298969072164684	194
16	0.98210178982101792	0.45592705167173331	329
15	0.97390260973902609	0.42763157894736836	456
14	0.96920307969203079	0.34607218683651791	471
13	0.96900309969003096	0.26540284360189476	422
12	0.97100289971002895	0.37901498929336097	467
11	0.96680331966803323	0.3182751540041075	487
10	0.9452054794520548	0.3429256594724221	834
9	0.91460853914608542	0.25479930191972106	1146
8	0.91130886911308873	0.27473426001635348	1223
7	0.90410958904109584	0.36405835543766546	1508
6	0.87521247875212482	0.35135135135135154	1924
5	0.88191180881911813	0.49160568230736135	2323
4	0.86251374862513752	0.41885038038884204	2366
3	0.87611238876112385	0.36688809402146122	1957
2	0.88611138886111385	0.44574209245742069	2055
1	0.90370962903709628	0.54852320675105481	2133
0	0.91880811918808114	0.56808510638297849	1880
