bit	prediction accuracy	evaluation score	error count
0	0.96540345965403462	8.0226448477429124e-16	346
1	0.96570342965703426	-1.0116017191395947e-15	343
3	0.94860513948605141	2.7002287133453771e-16	514
4	0.94410558944105594	7.4485736600690011e-16	559
5	0.91350864913508645	-4.8135869086457473e-16	865
6	0.90590940905909412	2.949877914260412e-16	941
7	0.77662233776622336	-1.2425403389968881e-16	2234
8	0.74292570742925712	2.1593427594858402e-16	2571
9	0.70382961703829616	0.0	2962
10	0.6833316668333167	1.7529744978333107e-16	3167
11	0.65013498650134982	0.00057126535275629157	3501
12	0.65843415658434157	0.10902451747522171	3834
13	0.63143685631436852	0.048037190082644572	3872
14	0.60743925607439253	0.058964525407478374	4172
15	0.60533946605339461	0.092435042538514506	4349
16	0.58964103589641037	0.12232677502138582	4676
17	0.59194080591940801	0.19459246102230104	5067
18	0.58564143585641437	0.22700988621525836	5361
19	0.59604039596040392	0.26970354302241489	5532
20	0.58634136586341368	0.27216748768472915	5684
21	0.58734126587341262	0.29741232550221303	5874
22	0.61213878612138783	0.36638353479255137	6122
23	0.67553244675532442	0.51968620485494366	6756
24	0.71782821717828216	0.6069090402563031	7179
25	0.74822517748225181	0.66350394226914344	7483
26	0.7588241175882412	0.68217156410594282	7589
27	0.78712128787121283	0.72954776422764223	7872
28	0.80271972802719727	0.75423517688091679	8028
29	0.81851814818518143	0.77827999022721717	8186
30	0.80871912808719126	0.76347675568743811	8088
31	0.81481851814818518	0.77273285065652231	8149
32	0.80671932806719326	0.76041150223103615	8068
33	0.79952004799520049	0.7492496248124062	7996
