bit	prediction accuracy	evaluation score	error count
0	0.9619038096190381	0.0	381
1	0.96170382961703826	-9.0595140904668664e-16	383
3	0.95170482951704827	-5.7470706362713202e-16	483
4	0.95160483951604835	-8.6027947850796923e-16	484
5	0.91290870912908706	-3.1869519142583784e-16	871
6	0.88571142885711429	0.0	1143
7	0.74642535746425354	-2.1891444142894699e-16	2536
8	0.69483051694830522	1.8190269445078948e-16	3052
9	0.63423657634236574	0.0	3658
10	0.60603939606039392	-1.409053359045202e-16	3940
11	0.71752824717528252	0.36143761301989158	4424
12	0.68453154684531548	0.36467982279500605	4966
13	0.66573342665733426	0.36637604245640637	5276
14	0.63473652634736522	0.33894317770539256	5526
15	0.58624137586241376	0.28985755963617638	5827
16	0.59354064593540645	0.3151954177897574	5936
17	0.60943905609439053	0.3591468416735028	6095
18	0.61933806619338061	0.38537294155634472	6194
19	0.62983701629837019	0.412287664708684	6299
20	0.63873612638736121	0.43440826549780825	6388
21	0.65943405659434051	0.48354814253222128	6595
22	0.67823217678232173	0.52557865251363689	6783
23	0.71162883711628833	0.59477307854433037	7117
24	0.75412458754124589	0.67395916202598782	7542
25	0.78982101789821013	0.73389036586909728	7899
26	0.80851914808519143	0.76317091268859749	8086
27	0.8363163683631637	0.80428024868483983	8364
28	0.85541445855414455	0.83097603740502624	8555
29	0.86621337866213377	0.84555004040170845	8663
30	0.87131286871312874	0.85230663300436083	8714
31	0.87351264873512646	0.85519688644688641	8736
32	0.87561243875612438	0.85794221765444789	8757
33	0.87631236876312368	0.85885440438156091	8764
